{
    "com.github.skykooler.ulauncher-conversion": {
        "id": "com.github.skykooler.ulauncher-conversion",
        "url": "https://github.com/skykooler/ulauncher-conversion",
        "updated_at": "2019-09-30T21:56:21.013764",
        "last_commit": "e0c707cbdaff04de8d7aecf002535176ad562c4e",
        "last_commit_time": "2019-07-09T14:41:19"
    },
    "com.github.zensoup.ulauncher-unicode": {
        "id": "com.github.zensoup.ulauncher-unicode",
        "url": "https://github.com/zensoup/ulauncher-unicode",
        "updated_at": "2019-09-30T21:56:25.989178",
        "last_commit": "0ad36c00a888e687b4bfbf76f266f1000040b337",
        "last_commit_time": "2019-07-11T06:53:31"
    },
    "com.github.iboyperson.ulauncher-system": {
        "id": "com.github.iboyperson.ulauncher-system",
        "url": "https://github.com/iboyperson/ulauncher-system",
        "updated_at": "2019-09-30T21:56:29.942201",
        "last_commit": "34a4776fcdf8be9b22d524b98631298efe668fb9",
        "last_commit_time": "2019-09-17T20:03:39"
    },
    "com.github.isacikgoz.ukill": {
        "id": "com.github.isacikgoz.ukill",
        "url": "https://github.com/isacikgoz/ukill",
        "updated_at": "2019-09-30T21:56:33.720610",
        "last_commit": "bc50d9f41d46b6813a5aeebddd15734dcdb9d8db",
        "last_commit_time": "2019-05-28T18:30:00"
    },
    "com.github.ulauncher.ulauncher-timer": {
        "id": "com.github.ulauncher.ulauncher-timer",
        "url": "https://github.com/Ulauncher/ulauncher-timer",
        "updated_at": "2019-09-30T21:56:37.223605",
        "last_commit": "1267b5997ca797b85136cf325bcf4a51e2f7adf7",
        "last_commit_time": "2019-09-25T06:44:20"
    },
    "com.github.brpaz.ulauncher-devhints": {
        "id": "com.github.brpaz.ulauncher-devhints",
        "url": "https://github.com/brpaz/ulauncher-devhints",
        "updated_at": "2019-09-30T21:56:59.835051",
        "last_commit": "a9266fef4a4fee38e6659ed22f9ba39ae420adc1",
        "last_commit_time": "2019-07-21T15:54:06"
    },
    "com.github.ulauncher.ulauncher-emoji": {
        "id": "com.github.ulauncher.ulauncher-emoji",
        "url": "https://github.com/Ulauncher/ulauncher-emoji",
        "updated_at": "2019-09-30T21:57:25.810136",
        "last_commit": "4734455e255a401ff7507192386ed62361cb3748",
        "last_commit_time": "2019-05-20T18:00:00"
    }
}