{
  "osu": "/run/media/kisaragi-hiu/Data/games/osu/",
  "notes": "/home/kisaragi-hiu/git/notes",
  "moresampler": "tool2/moresampler-0.8.4/moresampler.exe",
  "tn_fnds": "tool2/tn_fnds.exe",
  "wavtool": "wavtool.exe",
  "autostart": "/home/kisaragi-hiu/.config/openbox/autostart",
  "projects": "/run/media/kisaragi-hiu/Data/cloud/Projects",
  "d": "/run/media/kisaragi-hiu/Data",
  "cloud": "/run/media/kisaragi-hiu/Data/cloud",
  "kf6": "/home/kisaragi-hiu/kde-translations/zh_TW/kf6"
}